﻿name1,name2,email1,email2
Colin Ward,Mark Rothwell,Colin.ward@autoprotectgroup.co.uk,mrothwell@autoprotect.net
Shannon Hall,Neil Watkiss,shannon.hall@autoprotectgroup.co.uk,neil.watkiss@autoprotectgroup.co.uk
Jon-Joe Ward,David Chard,jjoe@autoprotect.net,dchard@autoprotectgroup.co.uk
Kate Guckian,Adam Head,kguckian@autoprotectgroup.co.uk,Ahead@autoprotect.net
Tim Eccles,Gary Burton,teccles@autoprotect.net,gburton@autoprotectgroup.co.uk
Mike Edwards,Richard Duncan,mike.edwards@autoprotectgroup.co.uk,rduncan@autoprotect.net
Ben Moore,Tanya Pullen,ben.moore@autoprotectgroup.co.uk,tpullen@i-complyonline.co.uk
Ian Batey,Graeme Nieman,ian.batey@autoprotectgroup.co.uk,graeme.nieman@autoprotectgroup.co.uk
Tara Williams,Katie Bullock,tara.williams@autoprotectgroup.co.uk,katiebullock@shinerepair.com
Angela Curtiss,Sanet Uys,acurtiss@autoprotect.net,suys@autoprotect.net
Emily Cameron,Robert Brown ,ecameron@autoprotect.net,#N/A
Sharon Cubbon,Joan Wiggins,sharon.cubbon@autoprotectgroup.co.uk,jwiggins@autoprotect.net
Kim Sklinar,James Barr,kim.sklinar@autoprotectgroup.co.uk,james.barr@autoprotectgroup.co.uk
Alasdair Thomson,Nancy Uzoma,alasdair.thomson@autoprotectgroup.co.uk,nancy.uzoma@autoprotectgroup.co.uk
Michael McVeigh,Amy Rundall,mmcvey@autoprotect.net,arundall@autoprotect.net
Karen Cannon,Helena Davis,kcannon@autoprotect.net,#N/A
Angie Hipkins,Peter Robinson,angie.hipkins@autoprotectgroup.co.uk,#N/A
Amy Rundall,Shannon Hall,arundall@autoprotect.net,shannon.hall@autoprotectgroup.co.uk
Tim Eccles,Katie Meadows,teccles@autoprotect.net,katiemeadows@shinerepair.com
Angela Curtiss,Dan Nixon,acurtiss@autoprotect.net,dnixon@autoprotect.net
Robert Brown,Colin Ward ,rbrown@autoprotect.net,Colin.ward@autoprotectgroup.co.uk
Ian Batey,Nadine Edwards,ian.batey@autoprotectgroup.co.uk,nadine.edwards@autoprotect.co.uk
Sharon Cubbon,Kate Guckian,sharon.cubbon@autoprotectgroup.co.uk,kguckian@autoprotectgroup.co.uk
Richard Duncan,Nancy Uzoma,rduncan@autoprotect.net,nancy.uzoma@autoprotectgroup.co.uk
Ben Moore,Patricia Connolly,ben.moore@autoprotectgroup.co.uk,patricia.connolly@autoprotectgroup.co.uk
James Holden,Jon-Joe Ward,jholden@autoprotectgroup.co.uk,jjoe@autoprotect.net
Ashley Palmer,Daniel Kirrage,ashley.palmer@autoprotectgroup.co.uk,daniel.kirrage@autoprotectgroup.co.uk
Ram Brigala,Shannon Hall,Rbarigala@autoprotect.net,shannon.hall@autoprotectgroup.co.uk
Tony Hajdini,Leanne Baker-Stokes,tony.hajdini@mymotorhub.com,lbakerstokes@autoprotect.net
Christian Ingrey,Ash Catton,cingrey@autoprotect.net,acatton@autoprotectgroup.co.uk
Rod Hall,Joan Wiggins,rod.hall@mymotorhub.com,jwiggins@autoprotect.net
Vince Brand,Callum Smith,vbrand@autoprotect.net,callum.smith@autoprotectgroup.co.uk
Richard Duncan,Teresa Thompson,rduncan@autoprotect.net,tdarlison@autoprotect.net 
Peter Godman,Sharon Cubbon,peter.godman@autoprotectgroup.co.uk,sharon.cubbon@autoprotectgroup.co.uk
David Chard,Katie Meadows,dchard@autoprotectgroup.co.uk,katiemeadows@shinerepair.com
Lamar Burke,Craig Stone ,lamar.burke@mymotorhub.com,Craigstone@shinerepair.com 
Lee Oldham,Jess Rego,lee.oldham@autoprotectgroup.co.uk,#N/A
Tanya Pullen,Chris Martin,tpullen@i-complyonline.co.uk,chris.martin@autoprotectgroup.co.uk
Hayley Wilkens,Kirstyn Thomas,hayleywilkens@hotmail.com,kirstyn.thomas@autoprotectgroup.co.uk
Kellyjo Harris,Kate Swinscoe,kjharris@autoprotect.net,kswinscoe@autoprotectgroup.co.uk
Rob yates ,Ben Moore,rob@shinerepair.com ,ben.moore@autoprotectgroup.co.uk
Carla Bush,Bukunmi Obaleye,cbush@autoprotect.net,bukunmi.obaleye@autoprotect.co.uk
Dave Hartley,Tim Eccles,david.hartley@autoprotectgroup.co.uk,teccles@autoprotect.net
Nancy Uzoma,nick haigh,nancy.uzoma@autoprotectgroup.co.uk,nhaigh@autoprotect.net
Colin Ward,James Holden,Colin.ward@autoprotectgroup.co.uk,jholden@autoprotectgroup.co.uk
Sohail Malik,Emily Cameron,sohail.malik@autoprotectgroup.co.uk,ecameron@autoprotect.net